"","Dataset","Response","Model","SE_MAAPE","MAAPE","SE_Spearman","Spearman","SE_MAE","MAE","SE_MSE","MSE"
"1","DataSet1","y","GPR",0.0021,0.8389,0.0081,0.4911,0.0061,1.3228,0.0478,3.5224
"2","DataSet1","y","RF",0.0039,0.8267,0.0056,0.6331,0.0087,1.1166,0.039,2.5607
"3","DataSet1","y","RR",0.0024,0.87,0.0075,0.4617,0.0093,1.3899,0.069,3.9061
"4","DataSet1","y","SVM",0.0042,0.8417,0.0063,0.5983,0.0112,1.1248,0.0613,2.8884
"5","DataSet1","y","ZAP_RF",0.0044,0.8237,0.0051,0.6391,0.0089,1.1104,0.0418,2.5393
"6","DataSet1","y","ZAP_SVM",0.0031,0.812,0.008,0.5887,0.0114,1.1737,0.0788,3.1489
"7","DataSet1","y","ZAPC_RF",0.0072,0.7019,0.0064,0.6129,0.0101,1.1121,0.0467,2.7012
"8","DataSet1","y","ZAPC_SVM",0.0076,0.7299,0.0078,0.585,0.0133,1.1364,0.0675,3.0317
